childes_weird
…
Based on Parental.education, Parental.profession annotation columns

byParentEducation<- annotations[!is.na(annotations$Parental.education),] %>%
    group_by(Language.or.Languages.spoken.in.recordings, continent, Parental.education) %>%
      count() 

byParentEducation <- byParentEducation %>% 
  rename(
    number_of_corpora = n,
    Parental.education.NAs_excluded = Parental.education)

byParentEducation

## # A tibble: 69 x 4
## # Groups:   Language.or.Languages.spoken.in.recordings, continent,
## #   Parental.education.NAs_excluded [69]
##    Language.or.Languages. continent  Parental.education.NAs_e number_of_corpo
##    <chr>                   <chr>      <chr>                                <int>
##  1 Arabic                  Africa     "university"                             1
##  2 Basque                  Europe     "fathers : primary educa                1
##  3 British English         Europe     "university education"                   1
##  4 Catalan                 Europe     "Both parents university                1
##  5 Catalan                 Europe     "yes"                                    1
##  6 Catalan (and the varia Europe     "Both parents hold a BA"                 1
##  7 Cree                    North Ame "post secondary"                         1
##  8 Czech                   Europe     "high school ; universit                1
##  9 Danish                  <NA>       "university education"                   1
## 10 Dutch                   Europe     "between 11 and 15 years"                1
## #  with 59 more rows
…
Based on Parental.ses annotation column

byParentSES<- annotations[!is.na(annotations$Parental.socioeconomic.status),] %>%
    group_by(Language.or.Languages.spoken.in.recordings, continent, Parental.socioeconomic.status) %>%
      count() 

byParentSES <- byParentSES %>% 
  rename(
    number_of_corpora = n,
    Parental.socioeconomic.status.NAs_excluded = Parental.socioeconomic.status)

byParentSES 

## # A tibble: 69 x 4
## # Groups:   Language.or.Languages.spoken.in.recordings, continent,
## #   Parental.socioeconomic.status.NAs_excluded [69]
##    Language.or.Languages.sp continent    Parental.socioeconom number_of_corpo
##    <chr>                     <chr>        <chr>                            <int>
##  1 Arabic                    Africa       middle-class                         1
##  2 Basque                    Europe       medium                               1
##  3 Brazilian Portuguese      Central and upper-middle class                   1
##  4 British English           Europe       middle-class                         1
##  5 Cantonese                 Asia         working class                        1
##  6 Catalan                   Europe       middle class                         1
##  7 Catalan (and the variant Europe       Upper middle-class                   1
##  8 Croatian                  <NA>         middle class                         1
##  9 Czech                     Europe       middle and upper-mid                1
## 10 Dutch                     Europe       lower-middle to midd                1
## #  with 59 more rows

148 corpora have NA for parental education.

byParentProfession<- annotations[!is.na(annotations$Parental.profession),] %>%
    group_by(Language.or.Languages.spoken.in.recordings, continent, Parental.profession) %>%
      count() 

byParentProfession <- byParentProfession %>% 
  rename(
    number_of_corpora = n,
    Parental.profession.NAs_excluded = Parental.profession)

byParentProfession

## # A tibble: 70 x 4
## # Groups:   Language.or.Languages.spoken.in.recordings, continent,
## #   Parental.profession.NAs_excluded [70]
##    Language.or.Languages continent    Parental.profession.NAs number_of_corpo
##    <chr>                  <chr>        <chr>                               <int>
##  1 Basque                 Europe       "fathers : industrial o                1
##  2 Brazilian Portuguese   Central and "father linguist profes                1
##  3 British English        Europe       "University lecturer"                   1
##  4 Cantonese              Asia         "varied (mass transport                1
##  5 Catalan                Europe       "mother and father: res                1
##  6 Catalan                Europe       "mother: researcher"                    1
##  7 Catalan (and the vari Europe       "Economist (father), do                1
##  8 Cree                   North Ameri "professional"                          1
##  9 Croatian               <NA>         "university teacher ; e                1
## 10 Czech                  Europe       "university scientist ;                1
## #  with 60 more rows
…
#byCulture <- group_select(annotations, "type_culture")
#byCulture <- byCulture %>% group_by(Type.of.culture..minority..majority.) %>%  summarise(n = n())
#byCulture

#byMortality<- group_select(annotations, "Mortality.rate.of.children.in.the.community")
#byMortality<- byMortality %>% group_by(Mortality.rate.of.children.in.the.community) %>%  summarise(n = n())
#byMortality

byLangSpeakers<- group_select(annotations, "Number.of.speakers.of.the.language")
byLangSpeakers<- byLangSpeakers %>% group_by(Number.of.speakers.of.the.language) %>%  summarise(n = n())
byLangSpeakers

## # A tibble: 35 x 2
##    Number.of.speakers.of.the.language     n
##    <chr>                              <int>
##  1 "~1000"                                1
##  2 "1.3"                                  1
##  3 "10 millions"                          1
##  4 "10.5 million"                         1
##  5 "100 million"                          1
##  6 "100 millions for Korean"              1
##  7 "100000000"                            2
##  8 "12 million"                           1
##  9 "12 millions "                         1
## 10 "130 million for Japanese"             5
## #  with 25 more rows
…
