childes_weird
…
byCommunity <- group_select(annotations, "type_community")
byCommunity <- byCommunity %>% group_by(type_community) %>%  summarise(n = n())
byCommunity

## # A tibble: 22 x 2
##    type_community                                                 n
##    <chr>                                                      <int>
##  1 ""                                                            21
##  2 "academic"                                                     2
##  3 "capital city of the Soviet Union"                             1
##  4 "city"                                                         1
##  5 "farmer"                                                       1
##  6 "industial"                                                    2
##  7 "industrial"                                                  19
##  8 "industrial "                                                  1
##  9 "Industrial city (population: around 272,000 inhabitants)"     1
## 10 "industrial, farmers"                                          1
## #  with 12 more rows
…
#byCulture <- group_select(annotations, "type_culture")
#byCulture <- byCulture %>% group_by(Type.of.culture..minority..majority.) %>%  summarise(n = n())
#byCulture

#byMortality<- group_select(annotations, "Mortality.rate.of.children.in.the.community")
#byMortality<- byMortality %>% group_by(Mortality.rate.of.children.in.the.community) %>%  summarise(n = n())
#byMortality

byLangSpeakers<- group_select(annotations, "number_speakers")
byLangSpeakers<- byLangSpeakers %>% group_by(number_speakers) %>%  summarise(n = n())
byLangSpeakers

## # A tibble: 35 x 2
##    number_speakers               n
##    <chr>                     <int>
##  1 ""                           22
##  2 "~1000"                       1
##  3 "1.3"                         1
##  4 "10 millions"                 1
##  5 "10.5 million"                1
##  6 "100 million"                 1
##  7 "100 millions for Korean"     1
##  8 "100000000"                   2
##  9 "12 million"                  1
## 10 "12 millions "                1
## #  with 25 more rows
…
Based on Parental.education, Parental.profession annotation columns

byParentEducation<- annotations[!is.na(annotations$Parental.education),] %>%
    group_by(language, continent, Parental.education) %>%
      count() 

byParentEducation <- byParentEducation %>% 
  rename(
    number_of_corpora = n,
    Parental.education.NAs_excluded = Parental.education)

byParentEducation

## # A tibble: 71 x 4
## # Groups:   language, continent, Parental.education.NAs_excluded [71]
##    language            continent Parental.education.NAs_exclud number_of_corpo
##    <chr>               <chr>     <chr>                                     <int>
##  1 American English ( <NA>      "both Ph.D. in linguistics"                   1
##  2 Arabic              <NA>      "university"                                  1
##  3 Basque              <NA>      "fathers : primary education                 1
##  4 British English     <NA>      "university education"                        1
##  5 Catalan             <NA>      "yes"                                         2
##  6 Catalan (and the v <NA>      "Both parents hold a BA"                      1
##  7 Cree                <NA>      "post secondary"                              1
##  8 Czech               <NA>      "high school ; university "                   1
##  9 Danish              <NA>      "university education"                        1
## 10 Dutch               <NA>      "between 11 and 15 years"                     1
## #  with 61 more rows

199 corpora have NA for parental education.

byParentProfession<- annotations[!is.na(annotations$Parental.profession),] %>%
    group_by(language, continent, Parental.profession) %>%
      count() 

byParentProfession <- byParentProfession %>% 
  rename(
    number_of_corpora = n,
    Parental.profession.NAs_excluded = Parental.profession)

byParentProfession

## # A tibble: 79 x 4
## # Groups:   language, continent, Parental.profession.NAs_excluded [79]
##    language            continent Parental.profession.NAs_exclu number_of_corpo
##    <chr>               <chr>     <chr>                                     <int>
##  1 American English ( <NA>      "linguistics instructors at H                1
##  2 Basque              <NA>      "fathers : industrial operato                1
##  3 Brazilian Portugue <NA>      "father linguist professor, m                1
##  4 British English     <NA>      "University lecturer"                         1
##  5 Cantonese           <NA>      "varied (mass transport compa                1
##  6 Catalan             <NA>      "mother: researcher"                          2
##  7 Catalan (and the v <NA>      "Economist (father), doctor (                1
##  8 Cree                <NA>      "professional"                                1
##  9 Croatian            <NA>      "university teacher ; enginee                1
## 10 Czech               <NA>      "university scientist ; cultu                1
## #  with 69 more rows
…
Based on Parental.ses annotation column

byParentSES<- annotations[!is.na(annotations$Parental.socioeconomic.status),] %>%
    group_by(language, continent, Parental.socioeconomic.status) %>%
      count() 

byParentSES <- byParentSES %>% 
  rename(
    number_of_corpora = n,
    Parental.socioeconomic.status.NAs_excluded = Parental.socioeconomic.status)

byParentSES 

## # A tibble: 74 x 4
## # Groups:   language, continent, Parental.socioeconomic.status.NAs_excluded
## #   [74]
##    language                 continent Parental.socioeconomic.s number_of_corpo
##    <chr>                    <chr>     <chr>                                <int>
##  1 American English (Middl <NA>      middle-class                             1
##  2 Arabic                   <NA>      middle-class                             1
##  3 Basque                   <NA>      medium                                   1
##  4 Brazilian Portuguese     <NA>      upper-middle class                       1
##  5 British English          <NA>      middle-class                             1
##  6 Cantonese                <NA>      working class                            1
##  7 Catalan                  <NA>      middle class                             1
##  8 Catalan (and the varian <NA>      Upper middle-class                       1
##  9 Croatian                 <NA>      middle class                             1
## 10 Czech                    <NA>      middle and upper-middle-                1
## #  with 64 more rows
…
